Get started with allometree • allometree
…
This document demonstrates the workflow to develop these allometric models, taking the relationship between two size parameters as an example: Predicting tree height from trunk diameter.

Two linear modelling approaches will be introduced:

Regression models developed separately for each species, i.e., single-species models

Mixed-effects model that includes all species as random effects, i.e., mixed-effects model

Example data: urbantrees

We will be using data(urbantrees). It contains five species planted along streets in Singapore, each spanning a wide range of heights and diameter sizes (in metres).

data(urbantrees, package = "allometree")
urbantrees
#> # A tibble: 1,585 x 3
#>    species                  diameter height
#>    <chr>                       <dbl>  <int>
#>  1 Hopea odorata              0.0987      4
#>  2 Hopea odorata              0.108       4
#>  3 Hopea odorata              0.111       4
#>  4 Xanthostemon chrysanthus   0.191       5
#>  5 Xanthostemon chrysanthus   0.150       5
#>  6 Xanthostemon chrysanthus   0.137       5
#>  7 Xanthostemon chrysanthus   0.207       5
#>  8 Xanthostemon chrysanthus   0.162       5
#>  9 Xanthostemon chrysanthus   0.134       5
#> 10 Xanthostemon chrysanthus   0.105       3
#> # … with 1,575 more rows
…
